"Name","Lap Tm"
"Green Flag",""
"746 Geert Klaassens",""
"775 Joop van der Have",""
"782 Cees Eikelenboom",""
"703 Hans Bataille",""
"733 Arie Middelkoop",""
"713 Harry Althof",""
"734 Wilbert Munsters",""
"791 Gijs van Hesteren",""
"746 Geert Klaassens","55.441"
"736 Dick Nanninga",""
"782 Cees Eikelenboom","1:02.458"
"703 Hans Bataille","1:03.551"
"733 Arie Middelkoop","1:03.162"
"713 Harry Althof","1:03.083"
"791 Gijs van Hesteren","1:02.698"
"746 Geert Klaassens","49.460"
"736 Dick Nanninga","56.297"
"782 Cees Eikelenboom","58.332"
"733 Arie Middelkoop","1:57.021"
"713 Harry Althof","58.061"
"703 Hans Bataille","59.272"
"734 Wilbert Munsters","2:02.073"
"777 Bort Koelewijn",""
"746 Geert Klaassens","47.621"
"736 Dick Nanninga","57.164"
"733 Arie Middelkoop","57.033"
"782 Cees Eikelenboom","57.560"
"713 Harry Althof","56.858"
"791 Gijs van Hesteren","1:55.010"
"703 Hans Bataille","58.251"
"734 Wilbert Munsters","57.723"
"746 Geert Klaassens","47.944"
"775 Joop van der Have","3:28.435"
"736 Dick Nanninga","57.459"
"713 Harry Althof","54.350"
"782 Cees Eikelenboom","58.744"
"734 Wilbert Munsters","56.114"
"791 Gijs van Hesteren","58.866"
"703 Hans Bataille","58.396"
"746 Geert Klaassens","47.693"
"733 Arie Middelkoop","1:47.345"
"736 Dick Nanninga","56.722"
"713 Harry Althof","52.871"
"782 Cees Eikelenboom","57.320"
"734 Wilbert Munsters","56.693"
"746 Geert Klaassens","48.452"
"703 Hans Bataille","57.905"
"777 Bort Koelewijn","3:12.707"
"733 Arie Middelkoop","53.910"
"713 Harry Althof","54.277"
"736 Dick Nanninga","57.673"
"734 Wilbert Munsters","51.983"
"746 Geert Klaassens","51.882"
"782 Cees Eikelenboom","56.882"
"703 Hans Bataille","57.698"
"775 Joop van der Have","2:28.499"
"777 Bort Koelewijn","46.832"
"733 Arie Middelkoop","52.452"
"713 Harry Althof","51.691"
"746 Geert Klaassens","52.068"
"782 Cees Eikelenboom","57.332"
"703 Hans Bataille","56.828"
"777 Bort Koelewijn","46.919"
"713 Harry Althof","51.500"
"733 Arie Middelkoop","53.473"
"746 Geert Klaassens","47.442"
"734 Wilbert Munsters","1:42.440"
"736 Dick Nanninga","1:52.870"
"782 Cees Eikelenboom","56.708"
"703 Hans Bataille","56.397"
"713 Harry Althof","49.020"
"746 Geert Klaassens","48.353"
"733 Arie Middelkoop","53.750"
"734 Wilbert Munsters","50.867"
"782 Cees Eikelenboom","55.836"
"703 Hans Bataille","56.870"
"746 Geert Klaassens","47.059"
"713 Harry Althof","49.752"
"734 Wilbert Munsters","52.695"
"775 Joop van der Have","3:20.753"
"736 Dick Nanninga","1:52.612"
"782 Cees Eikelenboom","55.513"
"703 Hans Bataille","56.288"
"746 Geert Klaassens","47.266"
"713 Harry Althof","49.456"
"733 Arie Middelkoop","1:45.301"
"734 Wilbert Munsters","52.417"
"736 Dick Nanninga","55.859"
"782 Cees Eikelenboom","55.689"
"703 Hans Bataille","55.913"
"746 Geert Klaassens","48.827"
"713 Harry Althof","49.312"
"734 Wilbert Munsters","50.121"
"733 Arie Middelkoop","53.640"
"736 Dick Nanninga","54.872"
"746 Geert Klaassens","47.348"
"782 Cees Eikelenboom","55.754"
"713 Harry Althof","50.683"
"703 Hans Bataille","57.315"
"775 Joop van der Have","2:29.502"
"733 Arie Middelkoop","52.813"
"791 Gijs van Hesteren","7:59.684"
"746 Geert Klaassens","46.936"
"736 Dick Nanninga","55.401"
"703 Hans Bataille","55.486"
"734 Wilbert Munsters","1:38.463"
"775 Joop van der Have","49.527"
"777 Bort Koelewijn","5:28.750"
"733 Arie Middelkoop","53.244"
"791 Gijs van Hesteren","52.756"
"746 Geert Klaassens","47.014"
"736 Dick Nanninga","54.612"
"Finish Flag",""
"782 Cees Eikelenboom","1:50.129"
"713 Harry Althof","1:46.117"
"703 Hans Bataille","56.106"
"733 Arie Middelkoop","53.276"
"791 Gijs van Hesteren","52.785"
"Run Stopped",""
