"Name","Lap Tm"
"Green Flag",""
"737 Peter van der Velde",""
"736 Dick Nanninga",""
"777 Bort Koelewijn",""
"746 Geert Klaassens",""
"716 Henri Crooijmans",""
"775 Joop van der Have",""
"706 Andre van Prooijen",""
"791 Gijs van Hesteren",""
"713 Harry Althof",""
"703 Hans Bataille",""
"799 Harrie van den Helm",""
"767 Bert Vonderman",""
"733 Arie Middelkoop",""
"718 John Hersevoort",""
"787 Van Erkel",""
"734 Wilbert Munsters",""
"777 Bort Koelewijn","2:23.284"
"737 Peter van der Velde","2:25.046"
"716 Henri Crooijmans","2:32.362"
"746 Geert Klaassens","2:43.257"
"736 Dick Nanninga","2:46.859"
"775 Joop van der Have","2:47.379"
"706 Andre van Prooijen","2:52.598"
"767 Bert Vonderman","2:46.300"
"713 Harry Althof","2:50.104"
"791 Gijs van Hesteren","2:56.384"
"703 Hans Bataille","3:01.424"
"799 Harrie van den Helm","3:01.908"
"733 Arie Middelkoop","3:02.592"
"718 John Hersevoort","3:08.020"
"734 Wilbert Munsters","3:06.915"
"787 Van Erkel","3:09.856"
"737 Peter van der Velde","2:10.845"
"777 Bort Koelewijn","2:14.523"
"716 Henri Crooijmans","2:23.913"
"746 Geert Klaassens","2:24.997"
"736 Dick Nanninga","2:31.115"
"775 Joop van der Have","2:34.573"
"767 Bert Vonderman","2:32.086"
"706 Andre van Prooijen","2:40.884"
"713 Harry Althof","2:40.196"
"791 Gijs van Hesteren","2:42.669"
"703 Hans Bataille","2:47.011"
"799 Harrie van den Helm","2:47.438"
"733 Arie Middelkoop","2:47.159"
"734 Wilbert Munsters","2:42.213"
"718 John Hersevoort","2:58.094"
"787 Van Erkel","2:56.767"
"737 Peter van der Velde","2:08.609"
"777 Bort Koelewijn","2:14.590"
"716 Henri Crooijmans","2:24.888"
"746 Geert Klaassens","2:17.918"
"736 Dick Nanninga","2:31.113"
"775 Joop van der Have","2:35.260"
"767 Bert Vonderman","2:33.065"
"713 Harry Althof","2:25.591"
"706 Andre van Prooijen","2:37.236"
"791 Gijs van Hesteren","2:42.534"
"703 Hans Bataille","2:43.295"
"799 Harrie van den Helm","2:43.015"
"733 Arie Middelkoop","2:43.218"
"734 Wilbert Munsters","2:42.997"
"737 Peter van der Velde","2:09.606"
"777 Bort Koelewijn","2:14.243"
"718 John Hersevoort","2:52.769"
"746 Geert Klaassens","2:17.660"
"716 Henri Crooijmans","2:24.637"
"736 Dick Nanninga","2:31.565"
"775 Joop van der Have","2:34.565"
"767 Bert Vonderman","2:33.933"
"713 Harry Althof","2:33.018"
"706 Andre van Prooijen","2:29.192"
"737 Peter van der Velde","2:14.022"
"703 Hans Bataille","2:39.201"
"799 Harrie van den Helm","2:39.091"
"733 Arie Middelkoop","2:38.702"
"777 Bort Koelewijn","2:15.071"
"734 Wilbert Munsters","2:39.016"
"791 Gijs van Hesteren","3:19.397"
"718 John Hersevoort","2:49.587"
"746 Geert Klaassens","2:17.187"
"716 Henri Crooijmans","2:21.373"
"736 Dick Nanninga","2:31.955"
"767 Bert Vonderman","2:20.968"
"713 Harry Althof","2:31.627"
"775 Joop van der Have","2:33.798"
"706 Andre van Prooijen","2:28.026"
"737 Peter van der Velde","2:04.741"
"777 Bort Koelewijn","2:15.705"
"703 Hans Bataille","2:41.175"
"799 Harrie van den Helm","2:41.465"
"733 Arie Middelkoop","2:41.130"
"734 Wilbert Munsters","2:40.142"
"746 Geert Klaassens","2:17.430"
"791 Gijs van Hesteren","2:35.086"
"716 Henri Crooijmans","2:27.424"
"718 John Hersevoort","2:48.699"
"767 Bert Vonderman","2:17.807"
"737 Peter van der Velde","2:09.318"
"736 Dick Nanninga","2:35.187"
"713 Harry Althof","2:21.469"
"706 Andre van Prooijen","2:33.015"
"775 Joop van der Have","2:39.458"
"777 Bort Koelewijn","2:14.373"
"703 Hans Bataille","2:37.456"
"799 Harrie van den Helm","2:37.297"
"746 Geert Klaassens","2:20.862"
"733 Arie Middelkoop","2:40.304"
"734 Wilbert Munsters","2:41.739"
"791 Gijs van Hesteren","2:35.044"
"716 Henri Crooijmans","2:25.645"
"767 Bert Vonderman","2:18.460"
"737 Peter van der Velde","2:10.817"
"718 John Hersevoort","2:48.553"
"713 Harry Althof","2:24.781"
"736 Dick Nanninga","2:37.947"
"777 Bort Koelewijn","2:14.321"
"706 Andre van Prooijen","2:30.816"
"775 Joop van der Have","2:36.911"
"703 Hans Bataille","2:34.376"
"799 Harrie van den Helm","2:35.009"
"791 Gijs van Hesteren","2:32.031"
"Finish Flag",""
"Run Stopped",""
