"Name","Lap Tm"
"Green Flag",""
"Run Stopped",""
"Green Flag",""
"Bert Struijk",""
"Joost Ris",""
"Dirk Ris",""
"Jan Wagemakers",""
"Bort Koelewijn",""
"Erwin Moes",""
"Joop van der Have",""
"Harry Althof",""
"Ted Haanappel",""
"Mark de Vink",""
"Bert Struijk","2:00.009"
"Joost Ris","2:00.084"
"Dirk Ris","2:02.521"
"Jan Wagemakers","2:11.028"
"Erwin Moes","2:10.264"
"Bort Koelewijn","2:11.369"
"Joop van der Have","2:10.299"
"Harry Althof","2:20.720"
"Ted Haanappel","2:17.825"
"Mark de Vink","2:15.376"
"Bert Struijk","2:00.203"
"Joost Ris","2:00.134"
"Dirk Ris","2:01.835"
"Jan Wagemakers","2:10.312"
"Erwin Moes","2:10.201"
"Bort Koelewijn","2:10.048"
"Joop van der Have","2:10.334"
"Ted Haanappel","2:18.102"
"Mark de Vink","2:18.145"
"Harry Althof","2:21.556"
"Joost Ris","1:58.527"
"Bert Struijk","1:59.325"
"Dirk Ris","2:02.751"
"Bort Koelewijn","2:07.947"
"Jan Wagemakers","2:09.968"
"Erwin Moes","2:10.061"
"Joop van der Have","2:08.733"
"Ted Haanappel","2:16.119"
"Mark de Vink","2:16.054"
"Harry Althof","2:16.249"
"Bert Struijk","1:58.084"
"Joost Ris","1:58.943"
"Dirk Ris","2:04.368"
"Bort Koelewijn","2:03.152"
"Jan Wagemakers","2:09.332"
"Erwin Moes","2:09.495"
"Joop van der Have","2:09.594"
"Ted Haanappel","2:13.840"
"Mark de Vink","2:13.687"
"Harry Althof","2:15.657"
"Bert Struijk","1:58.417"
"Joost Ris","1:58.452"
"Dirk Ris","2:05.696"
"Bort Koelewijn","2:03.392"
"Jan Wagemakers","2:08.513"
"Erwin Moes","2:08.268"
"Joop van der Have","2:08.849"
"Ted Haanappel","2:13.808"
"Mark de Vink","2:13.872"
"Harry Althof","2:16.300"
"Joost Ris","1:58.699"
"Bert Struijk","1:59.751"
"Dirk Ris","2:07.355"
"Bort Koelewijn","2:03.624"
"Jan Wagemakers","2:08.559"
"Joop van der Have","2:07.641"
"Erwin Moes","2:21.481"
"Bert Struijk","2:07.082"
"Ted Haanappel","2:15.194"
"Joost Ris","2:09.599"
"Mark de Vink","2:15.543"
"Harry Althof","2:17.076"
"Dirk Ris","2:05.321"
"Bort Koelewijn","2:03.481"
"Jan Wagemakers","2:07.540"
"Joop van der Have","2:25.997"
"Erwin Moes","2:15.870"
"Finish Flag",""
"Joost Ris","1:56.927"
"Bert Struijk","1:59.946"
"Mark de Vink","2:13.846"
"Ted Haanappel","2:18.271"
"Harry Althof","2:18.196"
"Dirk Ris","2:04.736"
"Bort Koelewijn","2:12.504"
"Jan Wagemakers","2:08.551"
"Joop van der Have","2:09.716"
"Erwin Moes","2:14.419"
"Run Stopped",""
