Uitslag;500cc   750cc - 1e Manche;;
Plaats;Naam;Aantal Rondes;Totaal Verschil
1;Jan Wagemakers;8;00:00:07.4770000
2;Mark de Vink;7;00:00:08.4950000
3;Ted Haanappel;7;00:00:11.4030000
4;Dirk Ris;8;00:00:11.7230000
5;Harry Althof;7;00:00:13.1550000
6;Bert Struijk;8;00:00:13.4590000
7;Joost Ris;8;00:00:18.8590000
8;Bort Koelewijn;8;00:00:28.2190000
9;Erwin Moes;8;00:00:28.4950000
10;Joop van der Have;8;00:00:29.2010000
Buiten Klassement;;;
