"Name","Lap Tm"
"Green Flag",""
"Wil Doodeman",""
"Willem Heykoop",""
"Mart van Wetten",""
"Hans de Wit",""
"Guido de Wit",""
"Willem Heykoop","2:13.433"
"Wil Doodeman","2:22.729"
"Mart van Wetten","2:29.008"
"Hans de Wit","2:27.326"
"Guido de Wit","2:32.382"
"Willem Heykoop","2:12.159"
"Wil Doodeman","2:22.661"
"Mart van Wetten","2:27.958"
"Hans de Wit","2:28.087"
"Guido de Wit","2:29.166"
"Willem Heykoop","2:12.261"
"Wil Doodeman","2:23.765"
"Mart van Wetten","2:27.412"
"Hans de Wit","2:28.727"
"Guido de Wit","2:30.144"
"Willem Heykoop","2:10.419"
"Wil Doodeman","2:23.589"
"Mart van Wetten","2:28.658"
"Hans de Wit","2:28.207"
"Guido de Wit","2:32.306"
"Willem Heykoop","2:11.072"
"Wil Doodeman","2:22.026"
"Mart van Wetten","2:27.455"
"Hans de Wit","2:30.277"
"Guido de Wit","2:30.127"
"Willem Heykoop","2:10.655"
"Wil Doodeman","2:22.634"
"Mart van Wetten","2:29.155"
"Hans de Wit","2:28.183"
"Guido de Wit","2:29.926"
"Finish Flag",""
"Willem Heykoop","2:10.067"
"Wil Doodeman","2:25.221"
"Mart van Wetten","2:31.033"
"Hans de Wit","2:30.186"
"Guido de Wit","2:31.138"
"Run Stopped",""
