"Name","Lap Tm"
"Green Flag",""
"Gerrit Butter",""
"Martin Eijbersen",""
"Albert den Hartog",""
"Mark de Vink",""
"Gerrit Bekker",""
"Jan vd Zanden",""
"Gerrit Butter","2:08.997"
"Martin Eijbersen","2:10.256"
"Albert den Hartog","2:10.038"
"Mark de Vink","2:18.503"
"Gerrit Bekker","2:24.711"
"Jan vd Zanden","2:33.307"
"Gerrit Butter","2:07.050"
"Albert den Hartog","2:10.498"
"Martin Eijbersen","2:13.663"
"Mark de Vink","2:15.081"
"Gerrit Bekker","2:17.953"
"Jan vd Zanden","2:36.140"
"Gerrit Butter","2:05.481"
"Albert den Hartog","2:08.317"
"Martin Eijbersen","2:17.231"
"Mark de Vink","2:14.400"
"Gerrit Bekker","2:13.201"
"Jan vd Zanden","2:38.730"
"Gerrit Butter","2:06.511"
"Albert den Hartog","2:08.091"
"Martin Eijbersen","2:21.181"
"Mark de Vink","2:14.579"
"Gerrit Bekker","2:13.179"
"Gerrit Butter","2:06.128"
"Albert den Hartog","2:09.521"
"Jan vd Zanden","2:35.716"
"Martin Eijbersen","2:14.223"
"Mark de Vink","2:14.391"
"Gerrit Bekker","2:12.484"
"Finish Flag",""
"Gerrit Butter","2:05.260"
"Albert den Hartog","2:08.394"
"Jan vd Zanden","2:37.000"
"Martin Eijbersen","2:17.705"
"Mark de Vink","2:14.199"
"Gerrit Bekker","2:14.337"
"Run Stopped",""
