"Name","Lap Tm"
"Green Flag",""
"Joost Ris",""
"Bert Struijk",""
"Dirk Ris",""
"Jan Wagemakers",""
"Bort Koelewijn",""
"Ted Haanappel",""
"Erwin Moes",""
"Joop van der Have",""
"Mark de Vink",""
"Harry Althof",""
"Joost Ris","1:57.218"
"Dirk Ris","1:56.476"
"Bert Struijk","1:58.696"
"Bort Koelewijn","2:03.478"
"Jan Wagemakers","2:07.116"
"Ted Haanappel","2:07.823"
"Erwin Moes","2:08.069"
"Joop van der Have","2:09.426"
"Mark de Vink","2:12.557"
"Harry Althof","2:16.833"
"Joost Ris","1:56.282"
"Dirk Ris","1:57.007"
"Bert Struijk","1:58.217"
"Bort Koelewijn","2:03.409"
"Jan Wagemakers","2:06.376"
"Ted Haanappel","2:08.142"
"Erwin Moes","2:07.938"
"Joop van der Have","2:07.975"
"Mark de Vink","2:07.485"
"Harry Althof","2:12.664"
"Joost Ris","1:56.153"
"Dirk Ris","1:57.426"
"Bert Struijk","1:58.184"
"Bort Koelewijn","2:04.470"
"Jan Wagemakers","2:05.664"
"Ted Haanappel","2:06.352"
"Erwin Moes","2:06.325"
"Joop van der Have","2:07.711"
"Mark de Vink","2:03.120"
"Harry Althof","2:09.525"
"Joost Ris","1:55.075"
"Dirk Ris","1:56.906"
"Bert Struijk","1:58.393"
"Bort Koelewijn","2:03.915"
"Jan Wagemakers","2:07.458"
"Ted Haanappel","2:05.952"
"Erwin Moes","2:05.954"
"Joop van der Have","2:07.632"
"Mark de Vink","2:03.865"
"Harry Althof","2:11.595"
"Joost Ris","1:55.513"
"Dirk Ris","1:58.438"
"Bert Struijk","1:57.652"
"Bort Koelewijn","2:04.001"
"Jan Wagemakers","2:06.236"
"Ted Haanappel","2:05.519"
"Erwin Moes","2:05.490"
"Joop van der Have","2:07.740"
"Mark de Vink","2:05.715"
"Harry Althof","2:11.373"
"Joost Ris","1:55.124"
"Dirk Ris","1:56.994"
"Bert Struijk","1:57.477"
"Bort Koelewijn","2:03.478"
"Erwin Moes","2:03.830"
"Ted Haanappel","2:06.586"
"Mark de Vink","2:01.937"
"Joop van der Have","2:08.181"
"Joost Ris","1:55.714"
"Harry Althof","2:10.121"
"Dirk Ris","1:57.453"
"Bert Struijk","1:57.546"
"Bort Koelewijn","2:04.626"
"Erwin Moes","2:02.962"
"Ted Haanappel","2:07.176"
"Mark de Vink","2:03.320"
"Joop van der Have","2:08.924"
"Finish Flag",""
"Joost Ris","1:54.589"
"Dirk Ris","2:01.789"
"Harry Althof","2:14.684"
"Bert Struijk","2:06.307"
"Bort Koelewijn","2:03.828"
"Erwin Moes","2:04.624"
"Mark de Vink","2:03.922"
"Ted Haanappel","2:10.102"
"Joop van der Have","2:08.753"
"Run Stopped",""
