"Name","Lap Tm"
"Green Flag",""
"Martin Eijbersen",""
"Gerrit Butter",""
"Albert den Hartog",""
"Gerrit Bekker",""
"Mark de Vink",""
"Jan vd Zanden",""
"Gerrit Butter","2:09.940"
"Martin Eijbersen","2:14.252"
"Albert den Hartog","2:16.532"
"Gerrit Bekker","2:20.526"
"Mark de Vink","2:24.580"
"Jan vd Zanden","2:37.378"
"Gerrit Butter","2:10.023"
"Martin Eijbersen","2:16.830"
"Albert den Hartog","2:15.366"
"Gerrit Bekker","2:19.961"
"Mark de Vink","2:21.584"
"Jan vd Zanden","2:40.485"
"Gerrit Butter","2:10.505"
"Martin Eijbersen","2:15.793"
"Albert den Hartog","2:15.879"
"Gerrit Bekker","2:18.877"
"Mark de Vink","2:22.707"
"Jan vd Zanden","2:41.301"
"Gerrit Butter","2:12.525"
"Martin Eijbersen","2:16.553"
"Albert den Hartog","2:15.132"
"Gerrit Bekker","2:18.095"
"Mark de Vink","2:20.019"
"Gerrit Butter","2:10.012"
"Jan vd Zanden","2:37.052"
"Martin Eijbersen","2:14.971"
"Albert den Hartog","2:14.644"
"Gerrit Bekker","2:17.108"
"Mark de Vink","2:19.487"
"Gerrit Butter","2:08.813"
"Martin Eijbersen","2:15.499"
"Jan vd Zanden","2:34.302"
"Albert den Hartog","2:14.543"
"Gerrit Bekker","2:16.203"
"Mark de Vink","2:19.524"
"Finish Flag",""
"Gerrit Butter","2:08.477"
"Martin Eijbersen","2:16.365"
"Albert den Hartog","2:13.557"
"Jan vd Zanden","2:37.400"
"Gerrit Bekker","2:15.833"
"Mark de Vink","2:19.717"
"Run Stopped",""
